<?xml version="1.0" encoding="UTF-8"?>
<svg width="20px" height="21px" viewBox="0 0 20 21" version="1.1" xmlns="http://www.w3.org/2000/svg" xmlns:xlink="http://www.w3.org/1999/xlink">
    <!-- Generator: Sketch 55.2 (78181) - https://sketchapp.com -->
    <title>Path</title>
    <desc>Created with Sketch.</desc>
    <g id="UI" stroke="none" stroke-width="1" fill="none" fill-rule="evenodd">
        <g id="03.01_AddNew" transform="translate(-1325.000000, -844.000000)" fill="#93B1D6" fill-rule="nonzero">
            <g id="Group-4">
                <g id="Group-3" transform="translate(150.000000, 596.000000)">
                    <g id="Group-Copy" transform="translate(0.000000, 205.000000)">
                        <g id="add" transform="translate(1175.000000, 43.000000)">
                            <path d="M19.1666667,9.66666667 L10.8333333,9.66666667 L10.8333333,1.33333333 C10.8333333,0.8725 10.4608333,0.5 10,0.5 C9.53916667,0.5 9.16666667,0.8725 9.16666667,1.33333333 L9.16666667,9.66666667 L0.833333333,9.66666667 C0.3725,9.66666667 0,10.0391667 0,10.5 C0,10.9608333 0.3725,11.3333333 0.833333333,11.3333333 L9.16666667,11.3333333 L9.16666667,19.6666667 C9.16666667,20.1275 9.53916667,20.5 10,20.5 C10.4608333,20.5 10.8333333,20.1275 10.8333333,19.6666667 L10.8333333,11.3333333 L19.1666667,11.3333333 C19.6275,11.3333333 20,10.9608333 20,10.5 C20,10.0391667 19.6275,9.66666667 19.1666667,9.66666667 Z" id="Path"></path>
                        </g>
                    </g>
                </g>
            </g>
        </g>
    </g>
</svg>