<?xml version="1.0" encoding="UTF-8"?>
<svg width="35px" height="34px" viewBox="0 0 35 34" version="1.1" xmlns="http://www.w3.org/2000/svg" xmlns:xlink="http://www.w3.org/1999/xlink">
    <!-- Generator: Sketch 55.2 (78181) - https://sketchapp.com -->
    <title>Active</title>
    <desc>Created with Sketch.</desc>
    <g id="Definitive-Spoon" stroke="none" stroke-width="1" fill="none" fill-rule="evenodd">
        <g id="05A-Dropdowns" transform="translate(-338.000000, -4036.000000)" fill="#E5EBF0">
            <g id="Group-22" transform="translate(183.000000, 3810.000000)">
                <g id="Group-21" transform="translate(30.000000, 174.000000)">
                    <g id="Group-29" transform="translate(125.333333, 0.000000)">
                        <circle id="Active" cx="17" cy="69" r="17"></circle>
                    </g>
                </g>
            </g>
        </g>
    </g>
</svg>