<?xml version="1.0" encoding="UTF-8"?>
<svg width="43px" height="44px" viewBox="0 0 43 44" version="1.1" xmlns="http://www.w3.org/2000/svg" xmlns:xlink="http://www.w3.org/1999/xlink">
    <!-- Generator: Sketch 55.2 (78181) - https://sketchapp.com -->
    <title>Style2_notification</title>
    <desc>Created with Sketch.</desc>
    <g id="Definitive-Spoon" stroke="none" stroke-width="1" fill="none" fill-rule="evenodd">
        <g id="06-Content-related-elements" transform="translate(-200.000000, -2627.000000)">
            <g id="Style2_notification" transform="translate(200.000000, 2627.000000)">
                <ellipse id="Oval" fill="#FFFFFF" cx="21.5" cy="22" rx="21.5" ry="22"></ellipse>
                <g id="noun_Speech-Bubble_296100" transform="translate(11.000000, 12.000000)" fill="#289FCF" fill-rule="nonzero">
                    <path d="M10.5,21 C4.70539419,21 0,16.2946058 0,10.5 C0,4.70539419 4.70539419,0 10.5,0 C16.2946058,0 21,4.70539419 21,10.5 C21,12.1120332 20.6224066,13.7095436 19.9107884,15.1473029 L20.8547718,18.2116183 C20.9128631,18.4004149 20.8692946,18.5892116 20.753112,18.7489627 C20.6369295,18.8941909 20.4481328,18.9813278 20.2593361,18.966805 L17.0062241,18.7344398 C15.1763485,20.2012448 12.8672199,21 10.5,21 Z M10.5,1.16182573 C5.34439834,1.16182573 1.16182573,5.35892116 1.16182573,10.5 C1.16182573,15.6410788 5.35892116,19.8381743 10.5,19.8381743 C12.6784232,19.8381743 14.7987552,19.0684647 16.4688797,17.6887967 C16.5850622,17.5871369 16.7302905,17.5435685 16.8755187,17.5580913 L19.5041494,17.746888 L18.7344398,15.2634855 C18.6908714,15.1182573 18.7053942,14.9585062 18.7780083,14.8278008 C19.4751037,13.4771784 19.8381743,12.0248963 19.8381743,10.5145228 C19.8381743,5.34439834 15.6556017,1.16182573 10.5,1.16182573 Z" id="Shape"></path>
                </g>
            </g>
        </g>
    </g>
</svg>